mc20_13TeV.801584.Py8EG_A14NNPDF23LO_XHS_X400_S200_4b.deriv.DAOD_PHYS.e8448_s3681_r13144_p5658
mc20_13TeV.801584.Py8EG_A14NNPDF23LO_XHS_X400_S200_4b.deriv.DAOD_PHYS.e8448_s3681_r13145_p5658
mc20_13TeV.801584.Py8EG_A14NNPDF23LO_XHS_X400_S200_4b.deriv.DAOD_PHYS.e8448_s3681_r13167_p5658
mc20_13TeV.801619.Py8EG_A14NNPDF23LO_XHS_X2000_S400_4b.deriv.DAOD_PHYS.e8448_s3681_r13144_p5658
mc20_13TeV.801619.Py8EG_A14NNPDF23LO_XHS_X2000_S400_4b.deriv.DAOD_PHYS.e8448_s3681_r13145_p5658
mc20_13TeV.801619.Py8EG_A14NNPDF23LO_XHS_X2000_S400_4b.deriv.DAOD_PHYS.e8448_s3681_r13167_p5658
mc20_13TeV.801648.Py8EG_A14NNPDF23LO_XHS_X3000_S2500_4b.deriv.DAOD_PHYS.e8448_s3681_r13144_p5658
mc20_13TeV.801648.Py8EG_A14NNPDF23LO_XHS_X3000_S2500_4b.deriv.DAOD_PHYS.e8448_s3681_r13145_p5658
mc20_13TeV.801648.Py8EG_A14NNPDF23LO_XHS_X3000_S2500_4b.deriv.DAOD_PHYS.e8448_s3681_r13167_p5658
