mc20_13TeV.410470.PhPy8EG_A14_ttbar_hdamp258p75_nonallhad.deriv.DAOD_PHYSLITE.e6337_s3681_r13144_p6490
mc20_13TeV.410470.PhPy8EG_A14_ttbar_hdamp258p75_nonallhad.deriv.DAOD_PHYSLITE.e6337_s3681_r13145_p6490
mc20_13TeV.410470.PhPy8EG_A14_ttbar_hdamp258p75_nonallhad.deriv.DAOD_PHYSLITE.e6337_s3681_r13167_p6490

mc20_13TeV.410472.PhPy8EG_A14_ttbar_hdamp258p75_dil.deriv.DAOD_PHYSLITE.e6348_s3681_r13144_p6490
mc20_13TeV.410472.PhPy8EG_A14_ttbar_hdamp258p75_dil.deriv.DAOD_PHYSLITE.e6348_s3681_r13145_p6490
mc20_13TeV.410472.PhPy8EG_A14_ttbar_hdamp258p75_dil.deriv.DAOD_PHYSLITE.e6348_s3681_r13167_p6490

mc20_13TeV.603190.PhPy8_A14_NNPDF31_ttbb_4FS_bzd5_dilep_shower.deriv.DAOD_PHYSLITE.e8555_s3797_r13144_p6623
mc20_13TeV.603190.PhPy8_A14_NNPDF31_ttbb_4FS_bzd5_dilep_shower.deriv.DAOD_PHYSLITE.e8555_s3797_r13145_p6623
mc20_13TeV.603190.PhPy8_A14_NNPDF31_ttbb_4FS_bzd5_dilep_shower.deriv.DAOD_PHYSLITE.e8555_s3797_r13167_p6623

mc20_13TeV.603192.PhPy8_A14_NNPDF31_ttbb_4FS_bzd5_ljets_shower.deriv.DAOD_PHYSLITE.e8555_s3797_r13144_p6623
mc20_13TeV.603192.PhPy8_A14_NNPDF31_ttbb_4FS_bzd5_ljets_shower.deriv.DAOD_PHYSLITE.e8555_s3797_r13145_p6623
mc20_13TeV.603192.PhPy8_A14_NNPDF31_ttbb_4FS_bzd5_ljets_shower.deriv.DAOD_PHYSLITE.e8555_s3797_r13167_p6623
