mc20_13TeV.603696.PhPy8EG_PDF4LHC21_HHbbyy_chhh10p0.deriv.DAOD_PHYSLITE.e8564_a907_r14859_p6266
mc20_13TeV.603696.PhPy8EG_PDF4LHC21_HHbbyy_chhh10p0.deriv.DAOD_PHYSLITE.e8564_a907_r14860_p6266
mc20_13TeV.603696.PhPy8EG_PDF4LHC21_HHbbyy_chhh10p0.deriv.DAOD_PHYSLITE.e8564_a907_r14861_p6266
