mc20_13TeV:mc20_13TeV.700168.Sh_2210_ttW.deriv.DAOD_PHYS.e8273_e7400_s3797_r13144_p6026
mc20_13TeV:mc20_13TeV.700168.Sh_2210_ttW.deriv.DAOD_PHYS.e8273_e7400_s3797_r13145_p6026
mc20_13TeV:mc20_13TeV.700168.Sh_2210_ttW.deriv.DAOD_PHYS.e8273_e7400_s3797_r13167_p6026
