mc20_13TeV.525955.aMCPy8EG_tWZ_Ztoll_DR1.deriv.DAOD_PHYSLITE.e8553_a907_r14859_p6266
mc20_13TeV.525955.aMCPy8EG_tWZ_Ztoll_DR1.deriv.DAOD_PHYSLITE.e8553_a907_r14860_p6266
mc20_13TeV.525955.aMCPy8EG_tWZ_Ztoll_DR1.deriv.DAOD_PHYSLITE.e8553_a907_r14861_p6266

