mc23_13p6TeV.513105.MGPy8EG_Zee_FxFx3jHT2bias_SW_BFilter.deriv.DAOD_PHYS.e8514_s4162_r14622_p6491
mc23_13p6TeV.513105.MGPy8EG_Zee_FxFx3jHT2bias_SW_BFilter.deriv.DAOD_PHYS.e8514_s4159_r15224_p6491

mc23_13p6TeV.513106.MGPy8EG_Zee_FxFx3jHT2bias_SW_CFilterBVeto.deriv.DAOD_PHYS.e8514_s4162_r14622_p6491
mc23_13p6TeV.513106.MGPy8EG_Zee_FxFx3jHT2bias_SW_CFilterBVeto.deriv.DAOD_PHYS.e8514_s4159_r15224_p6491

mc23_13p6TeV.513107.MGPy8EG_Zee_FxFx3jHT2bias_SW_CVetoBVeto.deriv.DAOD_PHYS.e8514_s4162_r14622_p6491
mc23_13p6TeV.513107.MGPy8EG_Zee_FxFx3jHT2bias_SW_CVetoBVeto.deriv.DAOD_PHYS.e8514_s4159_r15224_p6491

mc23_13p6TeV.513108.MGPy8EG_Zmumu_FxFx3jHT2bias_SW_BFilter.deriv.DAOD_PHYS.e8514_s4162_r14622_p6491
mc23_13p6TeV.513108.MGPy8EG_Zmumu_FxFx3jHT2bias_SW_BFilter.deriv.DAOD_PHYS.e8514_s4159_r15224_p6491

mc23_13p6TeV.513109.MGPy8EG_Zmumu_FxFx3jHT2bias_SW_CFilterBVeto.deriv.DAOD_PHYS.e8514_s4162_r14622_p6491
mc23_13p6TeV.513109.MGPy8EG_Zmumu_FxFx3jHT2bias_SW_CFilterBVeto.deriv.DAOD_PHYS.e8514_s4159_r15224_p6491

mc23_13p6TeV.513110.MGPy8EG_Zmumu_FxFx3jHT2bias_SW_CVetoBVeto.deriv.DAOD_PHYS.e8514_s4162_r14622_p6491
mc23_13p6TeV.513110.MGPy8EG_Zmumu_FxFx3jHT2bias_SW_CVetoBVeto.deriv.DAOD_PHYS.e8514_s4159_r15224_p6491

mc23_13p6TeV.513111.MGPy8EG_Ztautau_FxFx3jHT2bias_SW_BFilter.deriv.DAOD_PHYS.e8514_s4162_r14622_p6491
mc23_13p6TeV.513111.MGPy8EG_Ztautau_FxFx3jHT2bias_SW_BFilter.deriv.DAOD_PHYS.e8514_s4159_r15224_p6491

mc23_13p6TeV.513112.MGPy8EG_Ztautau_FxFx3jHT2bias_SW_CFilterBVeto.deriv.DAOD_PHYS.e8514_s4162_r14622_p6491
mc23_13p6TeV.513112.MGPy8EG_Ztautau_FxFx3jHT2bias_SW_CFilterBVeto.deriv.DAOD_PHYS.e8514_s4159_r15224_p6491

mc23_13p6TeV.513113.MGPy8EG_Ztautau_FxFx3jHT2bias_SW_CVetoBVeto.deriv.DAOD_PHYS.e8514_s4162_r14622_p6491
mc23_13p6TeV.513113.MGPy8EG_Ztautau_FxFx3jHT2bias_SW_CVetoBVeto.deriv.DAOD_PHYS.e8514_s4159_r15224_p6491
