#mc23_13p6TeV.603333.PhPy8EG_A14_qqZllH125bb_VpT.deriv.DAOD_PHYS.e8544_s4159_r14622_p6491
# mc23_13p6TeV.603333.PhPy8EG_A14_qqZllH125bb_VpT.deriv.DAOD_PHYS.e8544_s4159_r15224_p6491
#mc23_13p6TeV.603335.PhPy8EG_A14_ggZllH125bb.deriv.DAOD_PHYS.e8544_s4159_r14622_p6491
# mc23_13p6TeV.603335.PhPy8EG_A14_ggZllH125bb.deriv.DAOD_PHYS.e8544_s4159_r15224_p6491

# 603713
# 603714
# 603715
# 603716
# 603717
# 603718
