mc20_13TeV.410155.aMcAtNloPythia8EvtGen_MEN30NLO_A14N23LO_ttW.deriv.DAOD_PHYS.e5070_s3681_r13167_p6490
mc20_13TeV.504338.aMCPy8EG_NNPDF30NLO_A14N23LO_ttZqq.deriv.DAOD_PHYS.e8255_s3681_r13167_p6490
mc20_13TeV.504346.aMCPy8EG_NNPDF30NLO_A14N23LO_ttZnunu.deriv.DAOD_PHYS.e8255_s3681_r13167_p6490
mc20_13TeV.504330.aMCPy8EG_NNPDF30NLO_A14N23LO_ttee.deriv.DAOD_PHYS.e8255_s3681_r13167_p6490
mc20_13TeV.504334.aMCPy8EG_NNPDF30NLO_A14N23LO_ttmumu.deriv.DAOD_PHYS.e8255_s3681_r13167_p6490
mc20_13TeV.504342.aMCPy8EG_NNPDF30NLO_A14N23LO_tttautau.deriv.DAOD_PHYS.e8255_s3797_r13167_p6490
mc20_13TeV.410081.MadGraphPythia8EvtGen_A14NNPDF23_ttbarWW.deriv.DAOD_PHYS.e4111_s3681_r13167_p6490
mc20_13TeV.410155.aMcAtNloPythia8EvtGen_MEN30NLO_A14N23LO_ttW.deriv.DAOD_PHYS.e5070_s3681_r13144_p6490
mc20_13TeV.504338.aMCPy8EG_NNPDF30NLO_A14N23LO_ttZqq.deriv.DAOD_PHYS.e8255_s3681_r13144_p6490
mc20_13TeV.504346.aMCPy8EG_NNPDF30NLO_A14N23LO_ttZnunu.deriv.DAOD_PHYS.e8255_s3681_r13144_p6490
mc20_13TeV.504330.aMCPy8EG_NNPDF30NLO_A14N23LO_ttee.deriv.DAOD_PHYS.e8255_s3681_r13144_p6490
mc20_13TeV.504334.aMCPy8EG_NNPDF30NLO_A14N23LO_ttmumu.deriv.DAOD_PHYS.e8255_s3681_r13144_p6490
mc20_13TeV.504342.aMCPy8EG_NNPDF30NLO_A14N23LO_tttautau.deriv.DAOD_PHYS.e8255_s3797_r13144_p6490
mc20_13TeV.410081.MadGraphPythia8EvtGen_A14NNPDF23_ttbarWW.deriv.DAOD_PHYS.e4111_s3681_r13144_p6490
mc20_13TeV.410155.aMcAtNloPythia8EvtGen_MEN30NLO_A14N23LO_ttW.deriv.DAOD_PHYS.e5070_s3681_r13145_p6490
mc20_13TeV.504338.aMCPy8EG_NNPDF30NLO_A14N23LO_ttZqq.deriv.DAOD_PHYS.e8255_s3797_r13145_p6490
mc20_13TeV.504346.aMCPy8EG_NNPDF30NLO_A14N23LO_ttZnunu.deriv.DAOD_PHYS.e8255_s3681_r13145_p6490
mc20_13TeV.504330.aMCPy8EG_NNPDF30NLO_A14N23LO_ttee.deriv.DAOD_PHYS.e8255_s3681_r13145_p6490
mc20_13TeV.504334.aMCPy8EG_NNPDF30NLO_A14N23LO_ttmumu.deriv.DAOD_PHYS.e8255_s3681_r13145_p6490
mc20_13TeV.504342.aMCPy8EG_NNPDF30NLO_A14N23LO_tttautau.deriv.DAOD_PHYS.e8255_s3797_r13145_p6490
mc20_13TeV.410081.MadGraphPythia8EvtGen_A14NNPDF23_ttbarWW.deriv.DAOD_PHYS.e4111_s3681_r13145_p6490
